{
  "project_info": {
    "project_number": "944837537817",
    "firebase_url": "https://neocars-222711.firebaseio.com",
    "project_id": "neocars-222711",
    "storage_bucket": "neocars-222711.appspot.com"
  },
  "client": [
    {
      "client_info": {
        "mobilesdk_app_id": "1:944837537817:android:332b479bab4d7a4c0e3a88",
        "android_client_info": {
          "package_name": "com.neo.cars.app"
        }
      },
      "oauth_client": [
        {
          "client_id": "944837537817-cibvsukk8oqs9jgq7dbkm5r89a6jmop8.apps.googleusercontent.com",
          "client_type": 1,
          "android_info": {
            "package_name": "com.neo.cars.app",
            "certificate_hash": "4c65df3a674a0232b3c3f37a529c127c4bd78074"
          }
        },
        {
          "client_id": "944837537817-u1m8v39s4afmvkmf0j3br3sm3np0lss4.apps.googleusercontent.com",
          "client_type": 1,
          "android_info": {
            "package_name": "com.neo.cars.app",
            "certificate_hash": "4ebff1f0c940b5a841e45dd7332b800a4fddc90b"
          }
        },
        {
          "client_id": "944837537817-jjaj936bh94vb4v1421g7qkcg3nj5rvv.apps.googleusercontent.com",
          "client_type": 3
        }
      ],
      "api_key": [
        {
          "current_key": "AIzaSyDGhnxORgnqVufLsj91mhPG_4hL4t-FcuM"
        }
      ],
      "services": {
        "appinvite_service": {
          "other_platform_oauth_client": [
            {
              "client_id": "944837537817-jjaj936bh94vb4v1421g7qkcg3nj5rvv.apps.googleusercontent.com",
              "client_type": 3
            },
            {
              "client_id": "944837537817-2ph9ala48jk6pag89a0ae7agiv0k1e7c.apps.googleusercontent.com",
              "client_type": 2,
              "ios_info": {
                "bundle_id": "com.neocars.app",
                "app_store_id": "1455073794"
              }
            }
          ]
        }
      }
    }
  ],
  "configuration_version": "1"
}